mips_wave.vcd
$date
	Tue Apr 19 22:51:50 2022
$end
$version
	Icarus Verilog
$end
$timescale
	1s
$end
$scope module tb_mips $end
$var wire 16 ! leds [15:0] $end
$var reg 1 " clk $end
$var reg 1 # port_en $end
$var reg 1 $ port_sel $end
$var reg 1 % rst $end
$var reg 32 & user_input [31:0] $end
$scope module i_mips_top $end
$var wire 1 " clk $end
$var wire 1 ' in_en $end
$var wire 1 ( in_sel $end
$var wire 16 ) leds [15:0] $end
$var wire 1 # port_en $end
$var wire 1 * port_rst $end
$var wire 1 $ port_sel $end
$var wire 1 % rst $end
$var wire 32 + user_input [31:0] $end
$var wire 32 , outport [31:0] $end
$var wire 32 - opcode [31:0] $end
$var wire 1 . isSigned $end
$var wire 1 / RegWrite $end
$var wire 1 0 RegDst $end
$var wire 1 1 PCWriteCond $end
$var wire 1 2 PCWrite $end
$var wire 2 3 PCSource [1:0] $end
$var wire 1 4 MemWrite $end
$var wire 1 5 MemToReg $end
$var wire 1 6 MemRead $end
$var wire 1 7 JumpAndLink $end
$var wire 1 8 IorD $end
$var wire 1 9 IRWrite $end
$var wire 2 : ALUSrcB [1:0] $end
$var wire 1 ; ALUSrcA $end
$var wire 6 < ALUOp [5:0] $end
$scope module i_mips_controller $end
$var wire 1 " clk $end
$var wire 1 % rst $end
$var wire 32 = opcode [31:0] $end
$var reg 6 > ALUOp [5:0] $end
$var reg 1 ; ALUSrcA $end
$var reg 2 ? ALUSrcB [1:0] $end
$var reg 1 9 IRWrite $end
$var reg 1 8 IorD $end
$var reg 1 7 JumpAndLink $end
$var reg 1 6 MemRead $end
$var reg 1 5 MemToReg $end
$var reg 1 4 MemWrite $end
$var reg 2 @ PCSource [1:0] $end
$var reg 1 2 PCWrite $end
$var reg 1 1 PCWriteCond $end
$var reg 1 0 RegDst $end
$var reg 1 / RegWrite $end
$var reg 1 . isSigned $end
$var reg 5 A state [4:0] $end
$upscope $end
$scope module i_mips_datapath $end
$var wire 6 B ALUOp [5:0] $end
$var wire 1 ; ALUSrcA $end
$var wire 2 C ALUSrcB [1:0] $end
$var wire 1 9 IRWrite $end
$var wire 1 8 IorD $end
$var wire 1 7 JumpAndLink $end
$var wire 1 6 MemRead $end
$var wire 1 5 MemToReg $end
$var wire 1 4 MemWrite $end
$var wire 2 D PCSrc [1:0] $end
$var wire 1 2 PCWrite $end
$var wire 1 1 PCWriteCond $end
$var wire 1 0 RegDst $end
$var wire 1 / RegWrite $end
$var wire 1 " clk $end
$var wire 32 E in0_1 [31:0] $end
$var wire 1 ' in_en $end
$var wire 1 ( in_sel $end
$var wire 1 . isSigned $end
$var wire 32 F opcode [31:0] $end
$var wire 1 * port_rst $end
$var wire 1 % rst $end
$var wire 32 G sign_extended_wire [31:0] $end
$var wire 32 H shifted_wire [31:0] $end
$var wire 32 I program_counter_wire [31:0] $end
$var wire 32 J program_counter_reg_out [31:0] $end
$var wire 32 K program_counter_reg_in [31:0] $end
$var wire 32 L outport [31:0] $end
$var wire 5 M op_sel [4:0] $end
$var wire 32 N memory_reg_out_wire [31:0] $end
$var wire 32 O memory_reg_mux_wire [31:0] $end
$var wire 32 P memory_out_wire [31:0] $end
$var wire 1 Q lo_en $end
$var wire 32 R instruction_wire [31:0] $end
$var wire 5 S instruction_mux_wire [4:0] $end
$var wire 1 T hi_en $end
$var wire 1 U bt $end
$var wire 32 V alu_reg_out [31:0] $end
$var wire 32 W alu_out_lo [31:0] $end
$var wire 32 X alu_out_hi [31:0] $end
$var wire 32 Y alu_mux_wire [31:0] $end
$var wire 2 Z alu_mux_sel [1:0] $end
$var wire 32 [ alu_lo_reg_wire [31:0] $end
$var wire 32 \ alu_hi_reg_wire [31:0] $end
$var wire 32 ] RegB_wire [31:0] $end
$var wire 32 ^ RegB_mux_wire [31:0] $end
$var wire 32 _ RegA_wire [31:0] $end
$var wire 32 ` RegA_mux_wire [31:0] $end
$scope module i_alu $end
$var wire 1 U bt_out $end
$var wire 32 a in0 [31:0] $end
$var wire 32 b in1 [31:0] $end
$var wire 32 c result_out [31:0] $end
$var wire 32 d result_out_high [31:0] $end
$var wire 5 e shift [4:0] $end
$var wire 5 f op [4:0] $end
$var reg 1 U bt $end
$var reg 32 g result [31:0] $end
$var reg 32 h result_high [31:0] $end
$var reg 64 i tmp_signed [63:0] $end
$var reg 64 j tmp_unsigned [63:0] $end
$upscope $end
$scope module i_alu_controller $end
$var wire 6 k ir [5:0] $end
$var wire 6 l op [5:0] $end
$var reg 2 m alu_lo_hi [1:0] $end
$var reg 1 T hi_en $end
$var reg 1 Q lo_en $end
$var reg 5 n op_sel [4:0] $end
$upscope $end
$scope module i_alu_hi_reg $end
$var wire 1 " clk $end
$var wire 1 T en $end
$var wire 32 o in [31:0] $end
$var wire 1 % rst $end
$var reg 32 p out [31:0] $end
$upscope $end
$scope module i_alu_lo_reg $end
$var wire 1 " clk $end
$var wire 1 Q en $end
$var wire 32 q in [31:0] $end
$var wire 1 % rst $end
$var reg 32 r out [31:0] $end
$upscope $end
$scope module i_alu_out_reg $end
$var wire 1 " clk $end
$var wire 1 s en $end
$var wire 32 t in [31:0] $end
$var wire 1 % rst $end
$var reg 32 u out [31:0] $end
$upscope $end
$scope module i_inst_data_memory $end
$var wire 1 6 MemRead $end
$var wire 1 4 MemWrite $end
$var wire 32 v addr [31:0] $end
$var wire 1 " clk $end
$var wire 32 w in0_1 [31:0] $end
$var wire 1 ' inport_en $end
$var wire 1 ( inport_sel $end
$var wire 1 * port_rst $end
$var wire 1 % rst $end
$var wire 1 x wr_en $end
$var wire 32 y ram_data [31:0] $end
$var wire 32 z outport [31:0] $end
$var wire 1 { out_en $end
$var wire 2 | mux_sel [1:0] $end
$var wire 32 } inport1 [31:0] $end
$var wire 32 ~ inport0 [31:0] $end
$var wire 1 !" in1_en $end
$var wire 1 "" in0_en $end
$var wire 32 #" data [31:0] $end
$var wire 32 $" WrData [31:0] $end
$scope module i_inport0_register $end
$var wire 1 " clk $end
$var wire 1 "" en $end
$var wire 32 %" in [31:0] $end
$var wire 1 * rst $end
$var reg 32 &" out [31:0] $end
$upscope $end
$scope module i_inport1_register $end
$var wire 1 " clk $end
$var wire 1 !" en $end
$var wire 32 '" in [31:0] $end
$var wire 1 * rst $end
$var reg 32 (" out [31:0] $end
$upscope $end
$scope module i_memory_controller $end
$var wire 1 6 MemRead $end
$var wire 1 4 MemWrite $end
$var wire 32 )" addr [31:0] $end
$var reg 2 *" mux_sel [1:0] $end
$var reg 1 { out_en $end
$var reg 1 x wr_en $end
$upscope $end
$scope module i_outport_register $end
$var wire 1 " clk $end
$var wire 1 { en $end
$var wire 1 % rst $end
$var wire 32 +" in [31:0] $end
$var reg 32 ," out [31:0] $end
$upscope $end
$scope module inst_data_ram $end
$var wire 8 -" addr [7:0] $end
$var wire 1 " clk $end
$var wire 1 x wr_en $end
$var wire 32 ." q [31:0] $end
$var wire 32 /" data [31:0] $end
$var reg 32 0" tmp [31:0] $end
$upscope $end
$upscope $end
$scope module i_instruction_register $end
$var wire 1 " clk $end
$var wire 1 9 en $end
$var wire 32 1" in [31:0] $end
$var wire 1 % rst $end
$var reg 32 2" out [31:0] $end
$upscope $end
$scope module i_mem_data_reg $end
$var wire 1 " clk $end
$var wire 1 3" en $end
$var wire 32 4" in [31:0] $end
$var wire 1 % rst $end
$var reg 32 5" out [31:0] $end
$upscope $end
$scope module i_program_counter $end
$var wire 1 " clk $end
$var wire 1 6" en $end
$var wire 32 7" in [31:0] $end
$var wire 1 % rst $end
$var reg 32 8" out [31:0] $end
$upscope $end
$scope module i_register_file $end
$var wire 1 7 JumpAndLink $end
$var wire 1 " clk $end
$var wire 32 9" jal_addr [31:0] $end
$var wire 5 :" rd_addr0 [4:0] $end
$var wire 5 ;" rd_addr1 [4:0] $end
$var wire 1 % rst $end
$var wire 5 <" wr_addr [4:0] $end
$var wire 32 =" wr_data [31:0] $end
$var wire 1 / wr_en $end
$var reg 32 >" rd_data0 [31:0] $end
$var reg 32 ?" rd_data1 [31:0] $end
$var integer 32 @" i [31:0] $end
$upscope $end
$upscope $end
$upscope $end
$upscope $end
$enddefinitions $end
#0
$dumpvars
bx @"
bx ?"
bx >"
bx ="
bx <"
bx ;"
bx :"
bx 9"
bx 8"
bx 7"
x6"
bx 5"
bx 4"
13"
bx 2"
bx 1"
bx 0"
bx /"
bx ."
bx -"
bx ,"
bx +"
bx *"
bx )"
bx ("
b1100101011111110 '"
bx &"
b1100101011111110 %"
bx $"
bx #"
x""
x!"
bx ~
bx }
bx |
x{
bx z
bx y
xx
b1100101011111110 w
bx v
bx u
bx t
1s
bx r
bx q
bx p
bx o
bx n
bx m
bx l
bx k
bx j
bx i
bx h
bx g
bx f
bx e
bx d
bx c
bx b
bx a
bx `
bx _
bx ^
bx ]
bx \
bx [
bx Z
bx Y
bx X
bx W
bx V
xU
xT
bx S
bx R
xQ
bx P
bx O
bx N
bx M
bx L
bx K
bx J
bx I
bx00 H
bx G
bx F
b1100101011111110 E
bx D
bx C
bx B
bx A
bx @
bx ?
bx >
bx =
bx <
x;
bx :
x9
x8
x7
x6
x5
x4
bx 3
x2
x1
x0
x/
x.
bx -
bx ,
b1100101011111110 +
z*
b1010101111001101 )
z(
z'
b1100101011111110 &
1%
0$
0#
0"
b1010101111001101 !
$end
#10
b0 O
b0 ="
b0 H
b0 X
b0 d
b0 o
b0 h
bx W
bx c
bx g
bx q
bx t
0U
b0 i
b0 j
b0 -"
b0 Y
b0 S
b0 <"
b0 Z
b0 m
0Q
0T
b10000 M
b10000 f
b10000 n
b0 G
b0 |
b0 *"
0{
0x
06"
b0 `
b0 a
b0 k
b0 e
b0 ;"
b0 :"
b0 I
b0 v
b0 )"
00
0/
b0 :
b0 ?
b0 C
0;
b0 <
b0 >
b0 B
b0 l
b0 3
b0 @
b0 D
0.
09
05
04
06
08
02
07
01
b0 A
b0 J
b0 8"
b0 9"
b0 ,
b0 L
b0 z
b0 ,"
b0 N
b0 5"
b0 -
b0 =
b0 F
b0 R
b0 2"
b100000 @"
b0 V
b0 u
b0 [
b0 r
b0 \
b0 p
1"
#20
0"
#30
b10001100000100010000000000100100 P
b10001100000100010000000000100100 #"
b10001100000100010000000000100100 1"
b10001100000100010000000000100100 4"
b10001100000100010000000000100100 y
b10001100000100010000000000100100 ."
b10001100000100010000000000100100 0"
b100000 @"
1"
#40
0"
#50
b0 K
b0 7"
b0 W
b0 c
b0 g
b0 q
b0 t
b0 ^
b0 b
b0 ]
b0 $"
b0 +"
b0 /"
b0 ?"
b0 _
b0 >"
bx O
bx ="
bx Y
19
b1 A
b10001100000100010000000000100100 N
b10001100000100010000000000100100 5"
bx V
bx u
1"
0%
#60
0"
#70
b100 K
b100 7"
b100 W
b100 c
b100 g
b100 q
b100 t
b0 O
b0 ="
b10010000 H
b100 ^
b100 b
b0 Y
b100100 G
b10001 S
b10001 <"
b100100 k
b10001 ;"
b0 M
b0 f
b0 n
16"
b0 V
b0 u
b10001100000100010000000000100100 -
b10001100000100010000000000100100 =
b10001100000100010000000000100100 F
b10001100000100010000000000100100 R
b10001100000100010000000000100100 2"
b1 :
b1 ?
b1 C
b1001 <
b1001 >
b1001 B
b1001 l
16
12
b10 A
19
1"
#80
0"
#90
b10010100 K
b10010100 7"
b100 O
b100 ="
b10010000 ^
b10010000 b
b10010100 W
b10010100 c
b10010100 g
b10010100 q
b10010100 t
b1 -"
b100 Y
06"
b100 `
b100 a
b100 I
b100 v
b100 )"
b1111 A
b11 :
b11 ?
b11 C
b1001 <
b1001 >
b1001 B
b1001 l
09
06
02
b100 J
b100 8"
b100 9"
b100 V
b100 u
1"
#100
0"
#110
b10001100000100100000000000101000 P
b10001100000100100000000000101000 #"
b10001100000100100000000000101000 1"
b10001100000100100000000000101000 4"
b10001100000100100000000000101000 y
b10001100000100100000000000101000 ."
b10001100000100100000000000101000 0"
b100100 K
b100100 7"
b10010100 O
b10010100 ="
b100100 ^
b100100 b
b10010100 Y
b100100 W
b100100 c
b100100 g
b100100 q
b100100 t
b0 `
b0 a
b10010100 V
b10010100 u
b10000 A
1;
b10 :
b10 ?
b10 C
b1001 <
b1001 >
b1001 B
b1001 l
1"
#120
0"
#130
b0 K
b0 7"
b100100 O
b100100 ="
b1001 -"
b0 W
b0 c
b0 g
b0 q
b0 t
b100100 Y
b100100 I
b100100 v
b100100 )"
b100 M
b100 f
b100 n
b10001 A
18
16
b10 :
b10 ?
b10 C
1;
b0 <
b0 >
b0 B
b0 l
b10001100000100100000000000101000 N
b10001100000100100000000000101000 5"
b100100 V
b100100 u
1"
#140
0"
#150
b100 P
b100 #"
b100 1"
b100 4"
b100 y
b100 ."
b100 0"
b0 K
b0 7"
b0 Y
b0 ^
b0 b
b0 W
b0 c
b0 g
b0 q
b0 t
b1 -"
b10001100000100100000000000101000 O
b10001100000100100000000000101000 ="
b100 `
b100 a
b100 I
b100 v
b100 )"
b0 V
b0 u
b10010 A
1/
15
b0 :
b0 ?
b0 C
0;
06
08
1"
#160
0"
#170
b100 K
b100 7"
b100 W
b100 c
b100 g
b100 q
b100 t
b10001100000100100000000000101000 P
b10001100000100100000000000101000 #"
b10001100000100100000000000101000 1"
b10001100000100100000000000101000 4"
b100100 ^
b100100 b
b10001100000100100000000000101000 y
b10001100000100100000000000101000 ."
b10001100000100100000000000101000 0"
b100100 ]
b100100 $"
b100100 +"
b100100 /"
b100100 ?"
b100 O
b100 ="
b10011 A
1/
15
b100 N
b100 5"
1"
#180
0"
#190
b10001100000100100000000000101000 ^
b10001100000100100000000000101000 b
b10001100000100100000000000101000 ]
b10001100000100100000000000101000 $"
b10001100000100100000000000101000 +"
b10001100000100100000000000101000 /"
b10001100000100100000000000101000 ?"
b10001100000100100000000000101100 K
b10001100000100100000000000101100 7"
b10001100000100100000000000101100 W
b10001100000100100000000000101100 c
b10001100000100100000000000101100 g
b10001100000100100000000000101100 q
b10001100000100100000000000101100 t
b10100000 H
b100 Y
b0 M
b0 f
b0 n
b101000 G
b10010 S
b10010 <"
b101000 k
b10010 ;"
b10001100000100100000000000101000 O
b10001100000100100000000000101000 ="
b100 V
b100 u
b10001100000100100000000000101000 -
b10001100000100100000000000101000 =
b10001100000100100000000000101000 F
b10001100000100100000000000101000 R
b10001100000100100000000000101000 2"
b10001100000100100000000000101000 N
b10001100000100100000000000101000 5"
b1 A
19
0/
15
1"
#200
0"
#210
b0 ]
b0 $"
b0 +"
b0 /"
b0 ?"
b1000 K
b1000 7"
b1000 W
b1000 c
b1000 g
b1000 q
b1000 t
b100 ^
b100 b
b10001100000100100000000000101100 Y
16"
b10001100000100100000000000101100 O
b10001100000100100000000000101100 ="
b1 :
b1 ?
b1 C
b1001 <
b1001 >
b1001 B
b1001 l
16
12
b10 A
19
05
b10001100000100100000000000101100 V
b10001100000100100000000000101100 u
1"
#220
0"
#230
b10101000 K
b10101000 7"
b1000 O
b1000 ="
b1000 Y
b10101000 W
b10101000 c
b10101000 g
b10101000 q
b10101000 t
b10 -"
b10100000 ^
b10100000 b
b1000 `
b1000 a
b1000 I
b1000 v
b1000 )"
06"
b1000 V
b1000 u
b1000 J
b1000 8"
b1000 9"
b1111 A
b11 :
b11 ?
b11 C
b1001 <
b1001 >
b1001 B
b1001 l
09
06
02
1"
#240
0"
#250
b10001100101001100000100001 P
b10001100101001100000100001 #"
b10001100101001100000100001 1"
b10001100101001100000100001 4"
b10001100101001100000100001 y
b10001100101001100000100001 ."
b10001100101001100000100001 0"
b101000 K
b101000 7"
b101000 ^
b101000 b
b10101000 O
b10101000 ="
b101000 W
b101000 c
b101000 g
b101000 q
b101000 t
b10101000 Y
b0 `
b0 a
b10000 A
1;
b10 :
b10 ?
b10 C
b1001 <
b1001 >
b1001 B
b1001 l
b10101000 V
b10101000 u
1"
#260
0"
#270
b101000 O
b101000 ="
b101000 Y
b1010 -"
b101000 I
b101000 v
b101000 )"
b101000 V
b101000 u
b10001100101001100000100001 N
b10001100101001100000100001 5"
b10001 A
18
16
b10 :
b10 ?
b10 C
1;
b0 <
b0 >
b0 B
b0 l
1"
#280
0"
#290
b101 P
b101 #"
b101 1"
b101 4"
b101 y
b101 ."
b101 0"
b1000 K
b1000 7"
b0 ^
b0 b
b1000 W
b1000 c
b1000 g
b1000 q
b1000 t
b10 -"
b10001100101001100000100001 O
b10001100101001100000100001 ="
b1000 `
b1000 a
b1000 I
b1000 v
b1000 )"
b10010 A
1/
15
b0 :
b0 ?
b0 C
0;
06
08
1"
#300
0"
#310
b10001100101001100000100001 P
b10001100101001100000100001 #"
b10001100101001100000100001 1"
b10001100101001100000100001 4"
b10001100101001100000100001 y
b10001100101001100000100001 ."
b10001100101001100000100001 0"
b1000 Y
b101 O
b101 ="
b1000 V
b1000 u
b101 N
b101 5"
b10011 A
1/
15
1"
#320
0"
#330
b10001100101001100000101001 K
b10001100101001100000101001 7"
b10001100101001100000101001 W
b10001100101001100000101001 c
b10001100101001100000101001 g
b10001100101001100000101001 q
b10001100101001100000101001 t
b10001100101001100000100001 ^
b10001100101001100000100001 b
b10001100101001100000100001 ]
b10001100101001100000100001 $"
b10001100101001100000100001 +"
b10001100101001100000100001 /"
b10001100101001100000100001 ?"
b10001100101001100000100001 O
b10001100101001100000100001 ="
b1 A
19
0/
15
b10001100101001100000100001 N
b10001100101001100000100001 5"
1"
#340
0"
#350
b101 ]
b101 $"
b101 +"
b101 /"
b101 ?"
b1100 K
b1100 7"
b1100 W
b1100 c
b1100 g
b1100 q
b1100 t
b100110000010000100 H
b100 ^
b100 b
b10001100101001100000101001 Y
b1001100000100001 G
b100001 k
b10001 :"
16"
b10001100101001100000101001 O
b10001100101001100000101001 ="
b10001100101001100000101001 V
b10001100101001100000101001 u
b10001100101001100000100001 -
b10001100101001100000100001 =
b10001100101001100000100001 F
b10001100101001100000100001 R
b10001100101001100000100001 2"
b1 :
b1 ?
b1 C
b1001 <
b1001 >
b1001 B
b1001 l
16
12
b10 A
19
05
1"
#360
0"
#370
b10001100000100100000000000101000 _
b10001100000100100000000000101000 >"
b100110000010010000 K
b100110000010010000 7"
b1100 O
b1100 ="
b100110000010000100 ^
b100110000010000100 b
b100110000010010000 W
b100110000010010000 c
b100110000010010000 g
b100110000010010000 q
b100110000010010000 t
b11 -"
b1100 Y
06"
b1100 `
b1100 a
b1100 I
b1100 v
b1100 )"
b1000 A
b11 :
b11 ?
b11 C
b1001 <
b1001 >
b1001 B
b1001 l
09
06
02
b1100 J
b1100 8"
b1100 9"
b1100 V
b1100 u
1"
#380
0"
#390
b10010100111010000000100100 P
b10010100111010000000100100 #"
b10010100111010000000100100 1"
b10010100111010000000100100 4"
b10010100111010000000100100 y
b10010100111010000000100100 ."
b10010100111010000000100100 0"
b10001100000100100000000000101101 K
b10001100000100100000000000101101 7"
b100110000010010000 O
b100110000010010000 ="
b100110000010010000 Y
b10001100000100100000000000101101 W
b10001100000100100000000000101101 c
b10001100000100100000000000101101 g
b10001100000100100000000000101101 q
b10001100000100100000000000101101 t
b101 ^
b101 b
b10001100000100100000000000101000 `
b10001100000100100000000000101000 a
b100110000010010000 V
b100110000010010000 u
b1001 A
1;
b0 :
b0 ?
b0 C
b0 <
b0 >
b0 B
b0 l
1"
#400
0"
#410
b10001100000100100000000000101101 O
b10001100000100100000000000101101 ="
b10001100000100100000000000101101 Y
b10011 S
b10011 <"
b1010 A
10
1;
b10010100111010000000100100 N
b10010100111010000000100100 5"
b10001100000100100000000000101101 V
b10001100000100100000000000101101 u
1"
#420
0"
#430
b0 K
b0 7"
b0 W
b0 c
b0 g
b0 q
b0 t
b101000000010010000 H
b100 M
b100 f
b100 n
b1010000000100100 G
b10100 S
b10100 <"
b100100 k
b10011 ;"
b10010 :"
b10010100111010000000100100 -
b10010100111010000000100100 =
b10010100111010000000100100 F
b10010100111010000000100100 R
b10010100111010000000100100 2"
b1 A
19
1/
10
1;
1"
#440
0"
#450
b10001100000100100000000000101101 ]
b10001100000100100000000000101101 $"
b10001100000100100000000000101101 +"
b10001100000100100000000000101101 /"
b10001100000100100000000000101101 ?"
b101 _
b101 >"
b10000 K
b10000 7"
b100 ^
b100 b
b0 O
b0 ="
b10000 W
b10000 c
b10000 g
b10000 q
b10000 t
b0 Y
b0 M
b0 f
b0 n
16"
b10011 S
b10011 <"
b1100 `
b1100 a
b1 :
b1 ?
b1 C
b1001 <
b1001 >
b1001 B
b1001 l
16
12
b10 A
00
0/
0;
19
b0 V
b0 u
1"
#460
0"
#470
b101000000010100000 K
b101000000010100000 7"
b10000 O
b10000 ="
b10000 Y
b101000000010100000 W
b101000000010100000 c
b101000000010100000 g
b101000000010100000 q
b101000000010100000 t
b100 -"
b101000000010010000 ^
b101000000010010000 b
b10000 `
b10000 a
b10000 I
b10000 v
b10000 )"
06"
b10000 V
b10000 u
b10000 J
b10000 8"
b10000 9"
b1000 A
b11 :
b11 ?
b11 C
b1001 <
b1001 >
b1001 B
b1001 l
09
06
02
1"
#480
0"
#490
b10011101001010100000100110 P
b10011101001010100000100110 #"
b10011101001010100000100110 1"
b10011101001010100000100110 4"
b10011101001010100000100110 y
b10011101001010100000100110 ."
b10011101001010100000100110 0"
b101 K
b101 7"
b101000000010100000 O
b101000000010100000 ="
b10001100000100100000000000101101 ^
b10001100000100100000000000101101 b
b101 W
b101 c
b101 g
b101 q
b101 t
b101000000010100000 Y
b101 `
b101 a
b100 M
b100 f
b100 n
b1001 A
1;
b0 :
b0 ?
b0 C
b0 <
b0 >
b0 B
b0 l
b101000000010100000 V
b101000000010100000 u
1"
#500
0"
#510
b101 O
b101 ="
b101 Y
b10100 S
b10100 <"
b101 V
b101 u
b10011101001010100000100110 N
b10011101001010100000100110 5"
b1010 A
10
1;
1"
#520
0"
#530
b1 A
19
1/
10
1;
1"
#540
0"
#550
b10100 K
b10100 7"
b101010000010011000 H
b100 ^
b100 b
b1010100000100110 G
b10100 W
b10100 c
b10100 g
b10100 q
b10100 t
b100110 k
b10100 ;"
b10011 :"
b0 M
b0 f
b0 n
16"
b10100 S
b10100 <"
b10000 `
b10000 a
b10011101001010100000100110 -
b10011101001010100000100110 =
b10011101001010100000100110 F
b10011101001010100000100110 R
b10011101001010100000100110 2"
b1 :
b1 ?
b1 C
b1001 <
b1001 >
b1001 B
b1001 l
16
12
b10 A
00
0/
0;
19
1"
#560
0"
#570
b10001100000100100000000000101101 _
b10001100000100100000000000101101 >"
b101010000010101100 K
b101010000010101100 7"
b10100 O
b10100 ="
b101010000010011000 ^
b101010000010011000 b
b101010000010101100 W
b101010000010101100 c
b101010000010101100 g
b101010000010101100 q
b101010000010101100 t
b101 -"
b10100 Y
06"
b10100 `
b10100 a
b10100 I
b10100 v
b10100 )"
b1000 A
b11 :
b11 ?
b11 C
b1001 <
b1001 >
b1001 B
b1001 l
09
06
02
b10100 J
b10100 8"
b10100 9"
b10100 V
b10100 u
1"
#580
0"
#590
b10011100011011000000100101 P
b10011100011011000000100101 #"
b10011100011011000000100101 1"
b10011100011011000000100101 4"
b10011100011011000000100101 y
b10011100011011000000100101 ."
b10011100011011000000100101 0"
b0 K
b0 7"
b101010000010101100 O
b101010000010101100 ="
b101010000010101100 Y
b10001100000100100000000000101101 ^
b10001100000100100000000000101101 b
b0 W
b0 c
b0 g
b0 q
b0 t
b10001100000100100000000000101101 `
b10001100000100100000000000101101 a
b1011 M
b1011 f
b1011 n
b101010000010101100 V
b101010000010101100 u
b1001 A
1;
b0 :
b0 ?
b0 C
b0 <
b0 >
b0 B
b0 l
1"
#600
0"
#610
b0 O
b0 ="
b0 Y
b10101 S
b10101 <"
b1010 A
10
1;
b10011100011011000000100101 N
b10011100011011000000100101 5"
b0 V
b0 u
1"
#620
0"
#630
b10001100000100100000000000101101 K
b10001100000100100000000000101101 7"
b10001100000100100000000000101101 W
b10001100000100100000000000101101 c
b10001100000100100000000000101101 g
b10001100000100100000000000101101 q
b10001100000100100000000000101101 t
b101100000010010100 H
b1010 M
b1010 f
b1010 n
b1011000000100101 G
b10110 S
b10110 <"
b100101 k
b10001 ;"
b10011100011011000000100101 -
b10011100011011000000100101 =
b10011100011011000000100101 F
b10011100011011000000100101 R
b10011100011011000000100101 2"
b1 A
19
1/
10
1;
1"
#640
0"
#650
b10001100000100100000000000101000 ]
b10001100000100100000000000101000 $"
b10001100000100100000000000101000 +"
b10001100000100100000000000101000 /"
b10001100000100100000000000101000 ?"
b11000 K
b11000 7"
b100 ^
b100 b
b10001100000100100000000000101101 O
b10001100000100100000000000101101 ="
b11000 W
b11000 c
b11000 g
b11000 q
b11000 t
b10001100000100100000000000101101 Y
b0 M
b0 f
b0 n
16"
b10001 S
b10001 <"
b10100 `
b10100 a
b1 :
b1 ?
b1 C
b1001 <
b1001 >
b1001 B
b1001 l
16
12
b10 A
00
0/
0;
19
b10001100000100100000000000101101 V
b10001100000100100000000000101101 u
1"
#660
0"
#670
b101100000010101100 K
b101100000010101100 7"
b11000 O
b11000 ="
b11000 Y
b101100000010101100 W
b101100000010101100 c
b101100000010101100 g
b101100000010101100 q
b101100000010101100 t
b110 -"
b101100000010010100 ^
b101100000010010100 b
b11000 `
b11000 a
b11000 I
b11000 v
b11000 )"
06"
b11000 V
b11000 u
b11000 J
b11000 8"
b11000 9"
b1000 A
b11 :
b11 ?
b11 C
b1001 <
b1001 >
b1001 B
b1001 l
09
06
02
1"
#680
0"
#690
b10110101001011100000100011 P
b10110101001011100000100011 #"
b10110101001011100000100011 1"
b10110101001011100000100011 4"
b10110101001011100000100011 y
b10110101001011100000100011 ."
b10110101001011100000100011 0"
b10001100000100100000000000101101 K
b10001100000100100000000000101101 7"
b101100000010101100 O
b101100000010101100 ="
b10001100000100100000000000101000 ^
b10001100000100100000000000101000 b
b10001100000100100000000000101101 W
b10001100000100100000000000101101 c
b10001100000100100000000000101101 g
b10001100000100100000000000101101 q
b10001100000100100000000000101101 t
b101100000010101100 Y
b10001100000100100000000000101101 `
b10001100000100100000000000101101 a
b1010 M
b1010 f
b1010 n
b1001 A
1;
b0 :
b0 ?
b0 C
b0 <
b0 >
b0 B
b0 l
b101100000010101100 V
b101100000010101100 u
1"
#700
0"
#710
b10001100000100100000000000101101 O
b10001100000100100000000000101101 ="
b10001100000100100000000000101101 Y
b10110 S
b10110 <"
b10001100000100100000000000101101 V
b10001100000100100000000000101101 u
b10110101001011100000100011 N
b10110101001011100000100011 5"
b1010 A
10
1;
1"
#720
0"
#730
b1 A
19
1/
10
1;
1"
#740
0"
#750
b11100 K
b11100 7"
b101110000010001100 H
b100 ^
b100 b
b1011100000100011 G
b11100 W
b11100 c
b11100 g
b11100 q
b11100 t
b100011 k
b10100 ;"
b10110 :"
b0 M
b0 f
b0 n
16"
b10100 S
b10100 <"
b11000 `
b11000 a
b10110101001011100000100011 -
b10110101001011100000100011 =
b10110101001011100000100011 F
b10110101001011100000100011 R
b10110101001011100000100011 2"
b1 :
b1 ?
b1 C
b1001 <
b1001 >
b1001 B
b1001 l
16
12
b10 A
00
0/
0;
19
1"
#760
0"
#770
b10001100000100100000000000101101 ]
b10001100000100100000000000101101 $"
b10001100000100100000000000101101 +"
b10001100000100100000000000101101 /"
b10001100000100100000000000101101 ?"
b0 _
b0 >"
b101110000010101000 K
b101110000010101000 7"
b11100 O
b11100 ="
b101110000010001100 ^
b101110000010001100 b
b101110000010101000 W
b101110000010101000 c
b101110000010101000 g
b101110000010101000 q
b101110000010101000 t
b111 -"
b11100 Y
06"
b11100 `
b11100 a
b11100 I
b11100 v
b11100 )"
b1000 A
b11 :
b11 ?
b11 C
b1001 <
b1001 >
b1001 B
b1001 l
09
06
02
b11100 J
b11100 8"
b11100 9"
b11100 V
b11100 u
1"
#780
0"
#790
b10011100100000000000011001 P
b10011100100000000000011001 #"
b10011100100000000000011001 1"
b10011100100000000000011001 4"
b10011100100000000000011001 y
b10011100100000000000011001 ."
b10011100100000000000011001 0"
b1110011111011011111111111010011 K
b1110011111011011111111111010011 7"
b101110000010101000 O
b101110000010101000 ="
b101110000010101000 Y
b10001100000100100000000000101101 ^
b10001100000100100000000000101101 b
b1110011111011011111111111010011 W
b1110011111011011111111111010011 c
b1110011111011011111111111010011 g
b1110011111011011111111111010011 q
b1110011111011011111111111010011 t
b0 `
b0 a
b1 M
b1 f
b1 n
b101110000010101000 V
b101110000010101000 u
b1001 A
1;
b0 :
b0 ?
b0 C
b0 <
b0 >
b0 B
b0 l
1"
#800
0"
#810
b1110011111011011111111111010011 O
b1110011111011011111111111010011 ="
b1110011111011011111111111010011 Y
b10111 S
b10111 <"
b1010 A
10
1;
b10011100100000000000011001 N
b10011100100000000000011001 5"
b1110011111011011111111111010011 V
b1110011111011011111111111010011 u
1"
#820
0"
#830
b0 K
b0 7"
b0 W
b0 c
b0 g
b0 q
b0 t
b1100100 H
1Q
1T
b11 M
b11 f
b11 n
b11001 G
b0 S
b0 <"
b11001 k
b10010 ;"
b10011 :"
b10011100100000000000011001 -
b10011100100000000000011001 =
b10011100100000000000011001 F
b10011100100000000000011001 R
b10011100100000000000011001 2"
b1 A
19
1/
10
1;
1"
#840
0"
#850
b101 ]
b101 $"
b101 +"
b101 /"
b101 ?"
b10001100000100100000000000101101 _
b10001100000100100000000000101101 >"
b100000 K
b100000 7"
b100 ^
b100 b
b0 O
b0 ="
b100000 W
b100000 c
b100000 g
b100000 q
b100000 t
b0 Y
0Q
0T
b0 M
b0 f
b0 n
16"
b10010 S
b10010 <"
b11100 `
b11100 a
b1 :
b1 ?
b1 C
b1001 <
b1001 >
b1001 B
b1001 l
16
12
b10 A
00
0/
0;
19
b0 V
b0 u
1"
#860
0"
