mips_wave.vcd
$date
	Wed Apr 20 15:39:55 2022
$end
$version
	Icarus Verilog
$end
$timescale
	1s
$end
$scope module tb_mips $end
$var wire 16 ! leds [15:0] $end
$var reg 1 " clk $end
$var reg 1 # port_en $end
$var reg 1 $ port_sel $end
$var reg 1 % rst $end
$var reg 32 & user_input [31:0] $end
$scope module i_mips_top $end
$var wire 1 " clk $end
$var wire 1 ' in_en $end
$var wire 1 ( in_sel $end
$var wire 16 ) leds [15:0] $end
$var wire 1 # port_en $end
$var wire 1 * port_rst $end
$var wire 1 $ port_sel $end
$var wire 1 % rst $end
$var wire 32 + user_input [31:0] $end
$var wire 32 , outport [31:0] $end
$var wire 32 - opcode [31:0] $end
$var wire 1 . isSigned $end
$var wire 1 / RegWrite $end
$var wire 1 0 RegDst $end
$var wire 1 1 PCWriteCond $end
$var wire 1 2 PCWrite $end
$var wire 2 3 PCSource [1:0] $end
$var wire 1 4 MemWrite $end
$var wire 1 5 MemToReg $end
$var wire 1 6 MemRead $end
$var wire 1 7 JumpAndLink $end
$var wire 1 8 IorD $end
$var wire 1 9 IRWrite $end
$var wire 2 : ALUSrcB [1:0] $end
$var wire 1 ; ALUSrcA $end
$var wire 6 < ALUOp [5:0] $end
$scope module i_mips_controller $end
$var wire 1 " clk $end
$var wire 1 % rst $end
$var wire 32 = opcode [31:0] $end
$var reg 6 > ALUOp [5:0] $end
$var reg 1 ; ALUSrcA $end
$var reg 2 ? ALUSrcB [1:0] $end
$var reg 1 9 IRWrite $end
$var reg 1 8 IorD $end
$var reg 1 7 JumpAndLink $end
$var reg 1 6 MemRead $end
$var reg 1 5 MemToReg $end
$var reg 1 4 MemWrite $end
$var reg 2 @ PCSource [1:0] $end
$var reg 1 2 PCWrite $end
$var reg 1 1 PCWriteCond $end
$var reg 1 0 RegDst $end
$var reg 1 / RegWrite $end
$var reg 5 A debug_state [4:0] $end
$var reg 1 . isSigned $end
$var reg 5 B state [4:0] $end
$upscope $end
$scope module i_mips_datapath $end
$var wire 6 C ALUOp [5:0] $end
$var wire 1 ; ALUSrcA $end
$var wire 2 D ALUSrcB [1:0] $end
$var wire 1 9 IRWrite $end
$var wire 1 8 IorD $end
$var wire 1 7 JumpAndLink $end
$var wire 1 6 MemRead $end
$var wire 1 5 MemToReg $end
$var wire 1 4 MemWrite $end
$var wire 2 E PCSrc [1:0] $end
$var wire 1 2 PCWrite $end
$var wire 1 1 PCWriteCond $end
$var wire 1 0 RegDst $end
$var wire 1 / RegWrite $end
$var wire 1 " clk $end
$var wire 32 F in0_1 [31:0] $end
$var wire 1 ' in_en $end
$var wire 1 ( in_sel $end
$var wire 1 . isSigned $end
$var wire 32 G opcode [31:0] $end
$var wire 1 * port_rst $end
$var wire 1 % rst $end
$var wire 32 H sign_extended_wire [31:0] $end
$var wire 32 I shifted_wire [31:0] $end
$var wire 32 J program_counter_wire [31:0] $end
$var wire 32 K program_counter_reg_out [31:0] $end
$var wire 32 L program_counter_reg_in [31:0] $end
$var wire 32 M outport [31:0] $end
$var wire 5 N op_sel [4:0] $end
$var wire 32 O memory_reg_out_wire [31:0] $end
$var wire 32 P memory_reg_mux_wire [31:0] $end
$var wire 32 Q memory_out_wire [31:0] $end
$var wire 1 R lo_en $end
$var wire 32 S instruction_wire [31:0] $end
$var wire 5 T instruction_mux_wire [4:0] $end
$var wire 1 U hi_en $end
$var wire 1 V bt $end
$var wire 32 W alu_reg_out [31:0] $end
$var wire 32 X alu_out_lo [31:0] $end
$var wire 32 Y alu_out_hi [31:0] $end
$var wire 32 Z alu_mux_wire [31:0] $end
$var wire 2 [ alu_mux_sel [1:0] $end
$var wire 32 \ alu_lo_reg_wire [31:0] $end
$var wire 32 ] alu_hi_reg_wire [31:0] $end
$var wire 32 ^ RegB_wire [31:0] $end
$var wire 32 _ RegB_mux_wire [31:0] $end
$var wire 32 ` RegA_wire [31:0] $end
$var wire 32 a RegA_mux_wire [31:0] $end
$scope module i_alu $end
$var wire 1 V bt_out $end
$var wire 32 b in0 [31:0] $end
$var wire 32 c in1 [31:0] $end
$var wire 32 d result_out [31:0] $end
$var wire 32 e result_out_high [31:0] $end
$var wire 5 f shift [4:0] $end
$var wire 5 g op [4:0] $end
$var reg 1 V bt $end
$var reg 32 h result [31:0] $end
$var reg 32 i result_high [31:0] $end
$var reg 64 j tmp_signed [63:0] $end
$var reg 64 k tmp_unsigned [63:0] $end
$upscope $end
$scope module i_alu_controller $end
$var wire 6 l ir [5:0] $end
$var wire 6 m op [5:0] $end
$var reg 2 n alu_lo_hi [1:0] $end
$var reg 1 U hi_en $end
$var reg 1 R lo_en $end
$var reg 5 o op_sel [4:0] $end
$upscope $end
$scope module i_alu_hi_reg $end
$var wire 1 " clk $end
$var wire 1 U en $end
$var wire 32 p in [31:0] $end
$var wire 1 % rst $end
$var reg 32 q out [31:0] $end
$upscope $end
$scope module i_alu_lo_reg $end
$var wire 1 " clk $end
$var wire 1 R en $end
$var wire 32 r in [31:0] $end
$var wire 1 % rst $end
$var reg 32 s out [31:0] $end
$upscope $end
$scope module i_alu_out_reg $end
$var wire 1 " clk $end
$var wire 1 t en $end
$var wire 32 u in [31:0] $end
$var wire 1 % rst $end
$var reg 32 v out [31:0] $end
$upscope $end
$scope module i_inst_data_memory $end
$var wire 1 6 MemRead $end
$var wire 1 4 MemWrite $end
$var wire 32 w addr [31:0] $end
$var wire 1 " clk $end
$var wire 32 x in0_1 [31:0] $end
$var wire 1 ' inport_en $end
$var wire 1 ( inport_sel $end
$var wire 1 * port_rst $end
$var wire 1 % rst $end
$var wire 1 y wr_en $end
$var wire 32 z ram_data [31:0] $end
$var wire 32 { outport [31:0] $end
$var wire 1 | out_en $end
$var wire 2 } mux_sel [1:0] $end
$var wire 32 ~ inport1 [31:0] $end
$var wire 32 !" inport0 [31:0] $end
$var wire 1 "" in1_en $end
$var wire 1 #" in0_en $end
$var wire 32 $" data [31:0] $end
$var wire 32 %" WrData [31:0] $end
$scope module i_inport0_register $end
$var wire 1 " clk $end
$var wire 1 #" en $end
$var wire 32 &" in [31:0] $end
$var wire 1 * rst $end
$var reg 32 '" out [31:0] $end
$upscope $end
$scope module i_inport1_register $end
$var wire 1 " clk $end
$var wire 1 "" en $end
$var wire 32 (" in [31:0] $end
$var wire 1 * rst $end
$var reg 32 )" out [31:0] $end
$upscope $end
$scope module i_memory_controller $end
$var wire 1 6 MemRead $end
$var wire 1 4 MemWrite $end
$var wire 32 *" addr [31:0] $end
$var reg 2 +" mux_sel [1:0] $end
$var reg 1 | out_en $end
$var reg 1 y wr_en $end
$upscope $end
$scope module i_outport_register $end
$var wire 1 " clk $end
$var wire 1 | en $end
$var wire 1 % rst $end
$var wire 32 ," in [31:0] $end
$var reg 32 -" out [31:0] $end
$upscope $end
$scope module inst_data_ram $end
$var wire 8 ." addr [7:0] $end
$var wire 1 " clk $end
$var wire 1 % rst $end
$var wire 1 y wr_en $end
$var wire 32 /" q [31:0] $end
$var wire 32 0" data [31:0] $end
$var reg 32 1" tmp [31:0] $end
$upscope $end
$upscope $end
$scope module i_instruction_register $end
$var wire 1 " clk $end
$var wire 1 9 en $end
$var wire 32 2" in [31:0] $end
$var wire 1 % rst $end
$var reg 32 3" out [31:0] $end
$upscope $end
$scope module i_mem_data_reg $end
$var wire 1 " clk $end
$var wire 1 4" en $end
$var wire 32 5" in [31:0] $end
$var wire 1 % rst $end
$var reg 32 6" out [31:0] $end
$upscope $end
$scope module i_program_counter $end
$var wire 1 " clk $end
$var wire 1 7" en $end
$var wire 32 8" in [31:0] $end
$var wire 1 % rst $end
$var reg 32 9" out [31:0] $end
$upscope $end
$scope module i_register_file $end
$var wire 1 7 JumpAndLink $end
$var wire 1 " clk $end
$var wire 32 :" jal_addr [31:0] $end
$var wire 5 ;" rd_addr0 [4:0] $end
$var wire 5 <" rd_addr1 [4:0] $end
$var wire 1 % rst $end
$var wire 5 =" wr_addr [4:0] $end
$var wire 32 >" wr_data [31:0] $end
$var wire 1 / wr_en $end
$var reg 32 ?" debug_r17 [31:0] $end
$var reg 32 @" debug_r18 [31:0] $end
$var reg 32 A" debug_r19 [31:0] $end
$var reg 32 B" debug_r20 [31:0] $end
$var reg 32 C" debug_r21 [31:0] $end
$var reg 32 D" debug_r22 [31:0] $end
$var reg 32 E" debug_r23 [31:0] $end
$var reg 32 F" rd_data0 [31:0] $end
$var reg 32 G" rd_data1 [31:0] $end
$var integer 32 H" i [31:0] $end
$upscope $end
$upscope $end
$upscope $end
$upscope $end
$enddefinitions $end
#0
$dumpvars
bx H"
bx G"
bx F"
bx E"
bx D"
bx C"
bx B"
bx A"
bx @"
bx ?"
bx >"
bx ="
bx <"
bx ;"
bx :"
bx 9"
bx 8"
x7"
bx 6"
bx 5"
14"
bx 3"
bx 2"
bx 1"
bx 0"
bx /"
bx ."
bx -"
bx ,"
bx +"
bx *"
bx )"
b1100101011111110 ("
bx '"
b1100101011111110 &"
bx %"
bx $"
x#"
x""
bx !"
bx ~
bx }
x|
bx {
bx z
xy
b1100101011111110 x
bx w
bx v
bx u
1t
bx s
bx r
bx q
bx p
bx o
bx n
bx m
bx l
bx k
bx j
bx i
bx h
bx g
bx f
bx e
bx d
bx c
bx b
bx a
bx `
bx _
bx ^
bx ]
bx \
bx [
bx Z
bx Y
bx X
bx W
xV
xU
bx T
bx S
xR
bx Q
bx P
bx O
bx N
bx M
bx L
bx K
bx J
bx00 I
bx H
bx G
b1100101011111110 F
bx E
bx D
bx C
bx B
bx A
bx @
bx ?
bx >
bx =
bx <
x;
bx :
x9
x8
x7
x6
x5
x4
bx 3
x2
x1
x0
x/
x.
bx -
bx ,
b1100101011111110 +
z*
b1010101111001101 )
z(
z'
b1100101011111110 &
1%
0$
0#
0"
b1010101111001101 !
$end
#10
b0 Q
b0 $"
b0 2"
b0 5"
b0 P
b0 >"
b0 I
b0 Y
b0 e
b0 p
b0 i
bx X
bx d
bx h
bx r
bx u
0V
b0 j
b0 k
b0 ."
b0 Z
b0 T
b0 ="
b0 [
b0 n
0R
0U
b10000 N
b10000 g
b10000 o
b0 H
b0 }
b0 +"
0|
0y
07"
b0 a
b0 b
b0 l
b0 f
b0 <"
b0 ;"
b0 J
b0 w
b0 *"
00
0/
b0 :
b0 ?
b0 D
0;
b0 <
b0 >
b0 C
b0 m
b0 3
b0 @
b0 E
0.
09
05
04
06
08
02
07
01
b0 B
b0 K
b0 9"
b0 :"
b0 z
b0 /"
b0 1"
b0 ,
b0 M
b0 {
b0 -"
b0 O
b0 6"
b0 -
b0 =
b0 G
b0 S
b0 3"
b100000 H"
b0 E"
b0 D"
b0 C"
b0 B"
b0 A"
b0 @"
b0 ?"
b0 W
b0 v
b0 \
b0 s
b0 ]
b0 q
1"
#20
0"
#30
b100000 H"
1"
#40
0"
#50
b10001100000100010000000000100100 Q
b10001100000100010000000000100100 $"
b10001100000100010000000000100100 2"
b10001100000100010000000000100100 5"
b0 A
b10001100000100010000000000100100 z
b10001100000100010000000000100100 /"
b10001100000100010000000000100100 1"
b0 L
b0 8"
b0 X
b0 d
b0 h
b0 r
b0 u
bx P
bx >"
b0 _
b0 c
bx Z
19
b1 B
b0 ^
b0 %"
b0 ,"
b0 0"
b0 G"
b0 `
b0 F"
bx W
bx v
1"
0%
#60
0"
#70
b1 A
b100 L
b100 8"
b100 X
b100 d
b100 h
b100 r
b100 u
b0 P
b0 >"
b10010000 I
b100 _
b100 c
b0 Z
b100100 H
b10001 T
b10001 ="
b100100 l
b10001 <"
b0 N
b0 g
b0 o
17"
b0 W
b0 v
b10001100000100010000000000100100 -
b10001100000100010000000000100100 =
b10001100000100010000000000100100 G
b10001100000100010000000000100100 S
b10001100000100010000000000100100 3"
b10001100000100010000000000100100 O
b10001100000100010000000000100100 6"
b1 :
b1 ?
b1 D
b1001 <
b1001 >
b1001 C
b1001 m
16
12
b10 B
19
1"
#80
0"
#90
b10 A
b10010100 L
b10010100 8"
b100 P
b100 >"
b10010000 _
b10010000 c
b10010100 X
b10010100 d
b10010100 h
b10010100 r
b10010100 u
b1 ."
b100 Z
07"
b100 a
b100 b
b100 J
b100 w
b100 *"
b1111 B
b11 :
b11 ?
b11 D
b1001 <
b1001 >
b1001 C
b1001 m
09
06
02
b100 K
b100 9"
b100 :"
b100 W
b100 v
1"
#100
0"
#110
b10001100000100100000000000101000 Q
b10001100000100100000000000101000 $"
b10001100000100100000000000101000 2"
b10001100000100100000000000101000 5"
b10001100000100100000000000101000 z
b10001100000100100000000000101000 /"
b10001100000100100000000000101000 1"
b1111 A
b100100 L
b100100 8"
b10010100 P
b10010100 >"
b100100 _
b100100 c
b10010100 Z
b100100 X
b100100 d
b100100 h
b100100 r
b100100 u
b0 a
b0 b
b10010100 W
b10010100 v
b10000 B
1;
b10 :
b10 ?
b10 D
b1001 <
b1001 >
b1001 C
b1001 m
1"
#120
0"
#130
b10000 A
b100100 P
b100100 >"
b1001 ."
b100100 Z
b100100 J
b100100 w
b100100 *"
b10001 B
18
16
b10 :
b10 ?
b10 D
1;
b1001 <
b1001 >
b1001 C
b1001 m
b10001100000100100000000000101000 O
b10001100000100100000000000101000 6"
b100100 W
b100100 v
1"
#140
0"
#150
b100 Q
b100 $"
b100 2"
b100 5"
b100 z
b100 /"
b100 1"
b10001 A
b0 L
b0 8"
b0 _
b0 c
b0 X
b0 d
b0 h
b0 r
b0 u
b10001100000100100000000000101000 P
b10001100000100100000000000101000 >"
b100 a
b100 b
b100 N
b100 g
b100 o
b10010 B
15
b0 :
b0 ?
b0 D
0;
b0 <
b0 >
b0 C
b0 m
06
18
1"
#160
0"
#170
b10010 A
b0 Z
b1 ."
b100 P
b100 >"
b100 J
b100 w
b100 *"
b10011 B
1/
15
08
b100 O
b100 6"
b0 W
b0 v
1"
#180
0"
#190
b10001100000100100000000000101000 Q
b10001100000100100000000000101000 $"
b10001100000100100000000000101000 2"
b10001100000100100000000000101000 5"
b10001100000100100000000000101000 z
b10001100000100100000000000101000 /"
b10001100000100100000000000101000 1"
b10011 A
b1000 L
b1000 8"
b1000 X
b1000 d
b1000 h
b1000 r
b1000 u
b10000 I
b100 _
b100 c
b0 N
b0 g
b0 o
b100 H
b0 T
b0 ="
b100 l
b0 <"
b100 ?"
b100 ^
b100 %"
b100 ,"
b100 0"
b100 G"
b100 -
b100 =
b100 G
b100 S
b100 3"
b1 B
19
1/
15
1"
#200
0"
#210
b1 A
b1000 L
b1000 8"
b10100000 I
b1000 X
b1000 d
b1000 h
b1000 r
b1000 u
b101000 H
b10010 T
b10010 ="
b100 _
b100 c
b1000 Z
17"
b1000 P
b1000 >"
b101000 l
b10010 <"
b1 :
b1 ?
b1 D
b1001 <
b1001 >
b1001 C
b1001 m
16
12
b10 B
0/
19
05
b10001100000100100000000000101000 O
b10001100000100100000000000101000 6"
b10001100000100100000000000101000 -
b10001100000100100000000000101000 =
b10001100000100100000000000101000 G
b10001100000100100000000000101000 S
b10001100000100100000000000101000 3"
b0 ^
b0 %"
b0 ,"
b0 0"
b0 G"
b1000 W
b1000 v
1"
#220
0"
#230
b10 A
b10101000 L
b10101000 8"
b10101000 X
b10101000 d
b10101000 h
b10101000 r
b10101000 u
b10 ."
b10100000 _
b10100000 c
b1000 a
b1000 b
b1000 J
b1000 w
b1000 *"
07"
b1000 K
b1000 9"
b1000 :"
b1111 B
b11 :
b11 ?
b11 D
b1001 <
b1001 >
b1001 C
b1001 m
09
06
02
1"
#240
0"
#250
b10001100101001100000100001 Q
b10001100101001100000100001 $"
b10001100101001100000100001 2"
b10001100101001100000100001 5"
b1111 A
b10001100101001100000100001 z
b10001100101001100000100001 /"
b10001100101001100000100001 1"
b101000 L
b101000 8"
b101000 _
b101000 c
b10101000 P
b10101000 >"
b101000 X
b101000 d
b101000 h
b101000 r
b101000 u
b10101000 Z
b0 a
b0 b
b10000 B
1;
b10 :
b10 ?
b10 D
b1001 <
b1001 >
b1001 C
b1001 m
b10101000 W
b10101000 v
1"
#260
0"
#270
b10000 A
b101000 P
b101000 >"
b101000 Z
b1010 ."
b101000 J
b101000 w
b101000 *"
b101000 W
b101000 v
b10001100101001100000100001 O
b10001100101001100000100001 6"
b10001 B
18
16
b10 :
b10 ?
b10 D
1;
b1001 <
b1001 >
b1001 C
b1001 m
1"
#280
0"
#290
b101 Q
b101 $"
b101 2"
b101 5"
b10001 A
b101 z
b101 /"
b101 1"
b1000 L
b1000 8"
b0 _
b0 c
b1000 X
b1000 d
b1000 h
b1000 r
b1000 u
b10001100101001100000100001 P
b10001100101001100000100001 >"
b1000 a
b1000 b
b10010 B
15
b0 :
b0 ?
b0 D
0;
b0 <
b0 >
b0 C
b0 m
06
18
1"
#300
0"
#310
b10010 A
b10001100101001100000101001 L
b10001100101001100000101001 8"
b10001100101001100000101001 X
b10001100101001100000101001 d
b10001100101001100000101001 h
b10001100101001100000101001 r
b10001100101001100000101001 u
b1000 Z
b10001100101001100000100001 _
b10001100101001100000100001 c
b10 ."
b101 P
b101 >"
b1000 J
b1000 w
b1000 *"
b1000 W
b1000 v
b10001100101001100000100001 @"
b10001100101001100000100001 ^
b10001100101001100000100001 %"
b10001100101001100000100001 ,"
b10001100101001100000100001 0"
b10001100101001100000100001 G"
b101 O
b101 6"
b10011 B
1/
15
08
1"
#320
0"
#330
b10001100101001100000100001 Q
b10001100101001100000100001 $"
b10001100101001100000100001 2"
b10001100101001100000100001 5"
b10011 A
b10001100101001100000100001 z
b10001100101001100000100001 /"
b10001100101001100000100001 1"
b1101 L
b1101 8"
b1101 X
b1101 d
b1101 h
b1101 r
b1101 u
b101 _
b101 c
b10001100101001100000101001 Z
b1 B
19
1/
15
b101 @"
b101 ^
b101 %"
b101 ,"
b101 0"
b101 G"
b10001100101001100000101001 W
b10001100101001100000101001 v
1"
#340
0"
#350
b1 A
b1100 L
b1100 8"
b1100 X
b1100 d
b1100 h
b1100 r
b1100 u
b100110000010000100 I
b100 _
b100 c
b1101 Z
b1001100000100001 H
b100001 l
b10001 ;"
17"
b1101 P
b1101 >"
b1101 W
b1101 v
b10001100101001100000100001 -
b10001100101001100000100001 =
b10001100101001100000100001 G
b10001100101001100000100001 S
b10001100101001100000100001 3"
b10001100101001100000100001 O
b10001100101001100000100001 6"
b1 :
b1 ?
b1 D
b1001 <
b1001 >
b1001 C
b1001 m
16
12
b10 B
0/
19
05
1"
#360
0"
#370
b10 A
b100110000010010000 L
b100110000010010000 8"
b1100 P
b1100 >"
b100110000010000100 _
b100110000010000100 c
b100110000010010000 X
b100110000010010000 d
b100110000010010000 h
b100110000010010000 r
b100110000010010000 u
b11 ."
b1100 Z
07"
b1100 a
b1100 b
b1100 J
b1100 w
b1100 *"
b1000 B
b11 :
b11 ?
b11 D
b1001 <
b1001 >
b1001 C
b1001 m
09
06
02
b1100 K
b1100 9"
b1100 :"
b100 `
b100 F"
b1100 W
b1100 v
1"
#380
0"
#390
b10010100111010000000100100 Q
b10010100111010000000100100 $"
b10010100111010000000100100 2"
b10010100111010000000100100 5"
b10010100111010000000100100 z
b10010100111010000000100100 /"
b10010100111010000000100100 1"
b1000 A
b1001 L
b1001 8"
b100110000010010000 P
b100110000010010000 >"
b100110000010010000 Z
b1001 X
b1001 d
b1001 h
b1001 r
b1001 u
b101 _
b101 c
b10011 T
b10011 ="
b100 a
b100 b
b100110000010010000 W
b100110000010010000 v
b1001 B
10
1;
b0 :
b0 ?
b0 D
b0 <
b0 >
b0 C
b0 m
1"
#400
0"
#410
b1001 A
b1001 P
b1001 >"
b1001 Z
b1010 B
1/
10
1;
b10010100111010000000100100 O
b10010100111010000000100100 6"
b1001 W
b1001 v
1"
#420
0"
#430
b1010 A
b100 L
b100 8"
b100 X
b100 d
b100 h
b100 r
b100 u
b101000000010010000 I
b100 N
b100 g
b100 o
b1010000000100100 H
b10100 T
b10100 ="
b100100 l
b10011 <"
b10010 ;"
b1001 A"
b10010100111010000000100100 -
b10010100111010000000100100 =
b10010100111010000000100100 G
b10010100111010000000100100 S
b10010100111010000000100100 3"
b1 B
19
10
1/
1;
1"
#440
0"
#450
b1 A
b10000 L
b10000 8"
b100 P
b100 >"
b100 _
b100 c
b10000 X
b10000 d
b10000 h
b10000 r
b10000 u
b100 Z
b0 N
b0 g
b0 o
17"
b10011 T
b10011 ="
b1100 a
b1100 b
b1 :
b1 ?
b1 D
b1001 <
b1001 >
b1001 C
b1001 m
16
12
b10 B
00
0/
0;
19
b1001 B"
b1001 ^
b1001 %"
b1001 ,"
b1001 0"
b1001 G"
b101 `
b101 F"
b100 W
b100 v
1"
#460
0"
#470
b10 A
b101000000010100000 L
b101000000010100000 8"
b10000 P
b10000 >"
b10000 Z
b101000000010100000 X
b101000000010100000 d
b101000000010100000 h
b101000000010100000 r
b101000000010100000 u
b100 ."
b101000000010010000 _
b101000000010010000 c
b10000 a
b10000 b
b10000 J
b10000 w
b10000 *"
07"
b10000 W
b10000 v
b10000 K
b10000 9"
b10000 :"
b1000 B
b11 :
b11 ?
b11 D
b1001 <
b1001 >
b1001 C
b1001 m
09
06
02
1"
#480
0"
#490
b10011101001010100000100110 Q
b10011101001010100000100110 $"
b10011101001010100000100110 2"
b10011101001010100000100110 5"
b1000 A
b10011101001010100000100110 z
b10011101001010100000100110 /"
b10011101001010100000100110 1"
b1 L
b1 8"
b101000000010100000 P
b101000000010100000 >"
b1001 _
b1001 c
b1 X
b1 d
b1 h
b1 r
b1 u
b101000000010100000 Z
b10100 T
b10100 ="
b101 a
b101 b
b100 N
b100 g
b100 o
b1001 B
10
1;
b0 :
b0 ?
b0 D
b0 <
b0 >
b0 C
b0 m
b101000000010100000 W
b101000000010100000 v
1"
#500
0"
#510
b1001 A
b1 P
b1 >"
b1 Z
b1 W
b1 v
b101000000010100000 B"
b10011101001010100000100110 O
b10011101001010100000100110 6"
b1010 B
1/
10
1;
1"
#520
0"
#530
b1010 A
b1 B
19
10
1/
1;
b1 B"
1"
#540
0"
#550
b1 A
b10100 L
b10100 8"
b101010000010011000 I
b100 _
b100 c
b1010100000100110 H
b10100 X
b10100 d
b10100 h
b10100 r
b10100 u
b100110 l
b10100 <"
b10011 ;"
b0 N
b0 g
b0 o
17"
b10100 T
b10100 ="
b10000 a
b10000 b
b10011101001010100000100110 -
b10011101001010100000100110 =
b10011101001010100000100110 G
b10011101001010100000100110 S
b10011101001010100000100110 3"
b1 :
b1 ?
b1 D
b1001 <
b1001 >
b1001 C
b1001 m
16
12
b10 B
00
0/
0;
19
1"
#560
0"
#570
b10 A
b101010000010101100 L
b101010000010101100 8"
b10100 P
b10100 >"
b101010000010011000 _
b101010000010011000 c
b101010000010101100 X
b101010000010101100 d
b101010000010101100 h
b101010000010101100 r
b101010000010101100 u
b101 ."
b10100 Z
07"
b10100 a
b10100 b
b10100 J
b10100 w
b10100 *"
b1000 B
b11 :
b11 ?
b11 D
b1001 <
b1001 >
b1001 C
b1001 m
09
06
02
b10100 K
b10100 9"
b10100 :"
b1 ^
b1 %"
b1 ,"
b1 0"
b1 G"
b1001 `
b1001 F"
b10100 W
b10100 v
1"
#580
0"
#590
b10011100011011000000100101 Q
b10011100011011000000100101 $"
b10011100011011000000100101 2"
b10011100011011000000100101 5"
b10011100011011000000100101 z
b10011100011011000000100101 /"
b10011100011011000000100101 1"
b1000 A
b1000 L
b1000 8"
b101010000010101100 P
b101010000010101100 >"
b101010000010101100 Z
b1 _
b1 c
b1000 X
b1000 d
b1000 h
b1000 r
b1000 u
b10101 T
b10101 ="
b1001 a
b1001 b
b1011 N
b1011 g
b1011 o
b101010000010101100 W
b101010000010101100 v
b1001 B
10
1;
b0 :
b0 ?
b0 D
b0 <
b0 >
b0 C
b0 m
1"
#600
0"
#610
b1001 A
b1000 P
b1000 >"
b1000 Z
b1010 B
1/
10
1;
b10011100011011000000100101 O
b10011100011011000000100101 6"
b1000 W
b1000 v
1"
#620
0"
#630
b1010 A
b1001 L
b1001 8"
b1001 X
b1001 d
b1001 h
b1001 r
b1001 u
b101100000010010100 I
b1010 N
b1010 g
b1010 o
b1011000000100101 H
b10110 T
b10110 ="
b100101 l
b10001 <"
b1000 C"
b10011100011011000000100101 -
b10011100011011000000100101 =
b10011100011011000000100101 G
b10011100011011000000100101 S
b10011100011011000000100101 3"
b1 B
19
10
1/
1;
1"
#640
0"
#650
b1 A
b11000 L
b11000 8"
b1001 P
b1001 >"
b11000 X
b11000 d
b11000 h
b11000 r
b11000 u
b100 _
b100 c
b1001 Z
b0 N
b0 g
b0 o
17"
b10001 T
b10001 ="
b10100 a
b10100 b
b1 :
b1 ?
b1 D
b1001 <
b1001 >
b1001 C
b1001 m
16
12
b10 B
00
0/
0;
19
b1000 D"
b100 ^
b100 %"
b100 ,"
b100 0"
b100 G"
b1001 W
b1001 v
1"
#660
0"
#670
b10 A
b101100000010101100 L
b101100000010101100 8"
b11000 P
b11000 >"
b11000 Z
b101100000010101100 X
b101100000010101100 d
b101100000010101100 h
b101100000010101100 r
b101100000010101100 u
b110 ."
b101100000010010100 _
b101100000010010100 c
b11000 a
b11000 b
b11000 J
b11000 w
b11000 *"
07"
b11000 W
b11000 v
b11000 K
b11000 9"
b11000 :"
b1000 B
b11 :
b11 ?
b11 D
b1001 <
b1001 >
b1001 C
b1001 m
09
06
02
1"
#680
0"
#690
b10110101001011100000100011 Q
b10110101001011100000100011 $"
b10110101001011100000100011 2"
b10110101001011100000100011 5"
b1000 A
b10110101001011100000100011 z
b10110101001011100000100011 /"
b10110101001011100000100011 1"
b1101 L
b1101 8"
b101100000010101100 P
b101100000010101100 >"
b100 _
b100 c
b1101 X
b1101 d
b1101 h
b1101 r
b1101 u
b101100000010101100 Z
b10110 T
b10110 ="
b1001 a
b1001 b
b1010 N
b1010 g
b1010 o
b1001 B
10
1;
b0 :
b0 ?
b0 D
b0 <
b0 >
b0 C
b0 m
b101100000010101100 W
b101100000010101100 v
1"
#700
0"
#710
b1001 A
b1101 P
b1101 >"
b1101 Z
b1101 W
b1101 v
b101100000010101100 D"
b10110101001011100000100011 O
b10110101001011100000100011 6"
b1010 B
1/
10
1;
1"
#720
0"
#730
b1010 A
b1 B
19
10
1/
1;
b1101 D"
1"
#740
0"
#750
b1 A
b11100 L
b11100 8"
b101110000010001100 I
b1011100000100011 H
b11100 X
b11100 d
b11100 h
b11100 r
b11100 u
b100011 l
b10100 <"
b10110 ;"
b0 N
b0 g
b0 o
17"
b10100 T
b10100 ="
b11000 a
b11000 b
b10110101001011100000100011 -
b10110101001011100000100011 =
b10110101001011100000100011 G
b10110101001011100000100011 S
b10110101001011100000100011 3"
b1 :
b1 ?
b1 D
b1001 <
b1001 >
b1001 C
b1001 m
16
12
b10 B
00
0/
0;
19
1"
#760
0"
#770
b10 A
b101110000010101000 L
b101110000010101000 8"
b11100 P
b11100 >"
b101110000010001100 _
b101110000010001100 c
b101110000010101000 X
b101110000010101000 d
b101110000010101000 h
b101110000010101000 r
b101110000010101000 u
b111 ."
b11100 Z
07"
b11100 a
b11100 b
b11100 J
b11100 w
b11100 *"
b1000 B
b11 :
b11 ?
b11 D
b1001 <
b1001 >
b1001 C
b1001 m
09
06
02
b11100 K
b11100 9"
b11100 :"
b1 ^
b1 %"
b1 ,"
b1 0"
b1 G"
b1101 `
b1101 F"
b11100 W
b11100 v
1"
#780
0"
#790
b10011100100000000000011001 Q
b10011100100000000000011001 $"
b10011100100000000000011001 2"
b10011100100000000000011001 5"
b10011100100000000000011001 z
b10011100100000000000011001 /"
b10011100100000000000011001 1"
b1000 A
b1100 L
b1100 8"
b101110000010101000 P
b101110000010101000 >"
b101110000010101000 Z
b1 _
b1 c
b1100 X
b1100 d
b1100 h
b1100 r
b1100 u
b10111 T
b10111 ="
b1101 a
b1101 b
b1 N
b1 g
b1 o
b101110000010101000 W
b101110000010101000 v
b1001 B
10
1;
b0 :
b0 ?
b0 D
b0 <
b0 >
b0 C
b0 m
1"
#800
0"
#810
b1001 A
b1100 P
b1100 >"
b1100 Z
b1010 B
1/
10
1;
b10011100100000000000011001 O
b10011100100000000000011001 6"
b1100 W
b1100 v
1"
#820
0"
#830
b1010 A
b1101 L
b1101 8"
b1101 k
b1101 X
b1101 d
b1101 h
b1101 r
b1101 u
b1100100 I
1R
1U
b11 N
b11 g
b11 o
b11001 H
b0 T
b0 ="
b11001 l
b10010 <"
b10011 ;"
b1100 E"
b10011100100000000000011001 -
b10011100100000000000011001 =
b10011100100000000000011001 G
b10011100100000000000011001 S
b10011100100000000000011001 3"
b1 B
19
10
1/
1;
1"
#840
0"
#850
b1 A
b100000 L
b100000 8"
b1101 P
b1101 >"
b100 _
b100 c
b100000 X
b100000 d
b100000 h
b100000 r
b100000 u
b0 k
b1101 Z
0R
0U
b0 N
b0 g
b0 o
17"
b10010 T
b10010 ="
b11100 a
b11100 b
b1 :
b1 ?
b1 D
b1001 <
b1001 >
b1001 C
b1001 m
16
12
b10 B
00
0/
0;
19
b101 ^
b101 %"
b101 ,"
b101 0"
b101 G"
b1001 `
b1001 F"
b1101 W
b1101 v
b1101 \
b1101 s
1"
#860
0"
#870
b10 A
b10000100 L
b10000100 8"
b100000 P
b100000 >"
b100000 Z
b10000100 X
b10000100 d
b10000100 h
b10000100 r
b10000100 u
b1000 ."
b1100100 _
b1100100 c
b100000 a
b100000 b
b100000 J
b100000 w
b100000 *"
07"
b100000 W
b100000 v
b100000 K
b100000 9"
b100000 :"
b1000 B
b11 :
b11 ?
b11 D
b1001 <
b1001 >
b1001 C
b1001 m
09
06
02
1"
#880
0"
